{
  "BETA": false,
  "DEBUG": false,
  "NAME": "google-node-template",
  "GCLOUD_PROJECT": "",
  "DATA_BACKEND": "mongodb",
  "MONGO_URL": "",
  "CLOUD_BUCKET": "",
  "OAUTH2_CLIENT_ID": "",
  "OAUTH2_CLIENT_SECRET": "",
  "KEYFILE": "",
  "INSTANCE_CONNECTION_NAME": "",
  "TOPIC_NAME": "", 
  "_comment": "Be sure to switch these before going to prod",
  "_OAUTH2_CALLBACK": "http://localhost:8080/auth/google/callback",
  "OAUTH2_CALLBACK": "https://my.domain.com/auth/google/callback",
  "PORT": "8080",
  "ENABLED": true,
  "SECRET": "",
  "SLACK_API_WEBHOOK": "",
  "notify": {
    "TELEGRAM_API": "",
    "TELEGRAM_BOT_NAME": "GoogleNodeBot"

  }
}
